^D:\PROJECTS\NEW CLI1\NEW CLI1\DEBUG\.NETFRAMEWORK,VERSION=V4.5.ASSEMBLYATTRIBUTES.OBJ|D:\PROJECTS\NEW CLI1\NEW CLI1\DEBUG\BISHOP.OBJ|D:\PROJECTS\NEW CLI1\NEW CLI1\DEBUG\DW1.OBJ|D:\PROJECTS\NEW CLI1\NEW CLI1\DEBUG\DW2.OBJ|D:\PROJECTS\NEW CLI1\NEW CLI1\DEBUG\DW3.OBJ|D:\PROJECTS\NEW CLI1\NEW CLI1\DEBUG\DW4.OBJ|D:\PROJECTS\NEW CLI1\NEW CLI1\DEBUG\DW5.OBJ|D:\PROJECTS\NEW CLI1\NEW CLI1\DEBUG\DW6.OBJ|D:\PROJECTS\NEW CLI1\NEW CLI1\DEBUG\FIELD.OBJ|D:\PROJECTS\NEW CLI1\NEW CLI1\DEBUG\FIGURE.OBJ|D:\PROJECTS\NEW CLI1\NEW CLI1\DEBUG\HORSE.OBJ|D:\PROJECTS\NEW CLI1\NEW CLI1\DEBUG\KING.OBJ|D:\PROJECTS\NEW CLI1\NEW CLI1\DEBUG\MYFORM.OBJ|D:\PROJECTS\NEW CLI1\NEW CLI1\DEBUG\PAWN.OBJ|D:\PROJECTS\NEW CLI1\NEW CLI1\DEBUG\QUEEN.OBJ|D:\PROJECTS\NEW CLI1\NEW CLI1\DEBUG\ROOK.OBJ
C:\WINDOWS\GLOBALIZATION\SORTING\SORTDEFAULT.NLS
D:\PROJECTS\NEW CLI1\NEW CLI1\DEBUG\BISHOP.OBJ
D:\PROJECTS\NEW CLI1\NEW CLI1\DEBUG\DW1.OBJ
D:\PROJECTS\NEW CLI1\NEW CLI1\DEBUG\DW2.OBJ
D:\PROJECTS\NEW CLI1\NEW CLI1\DEBUG\DW3.OBJ
D:\PROJECTS\NEW CLI1\NEW CLI1\DEBUG\DW4.OBJ
D:\PROJECTS\NEW CLI1\NEW CLI1\DEBUG\DW5.OBJ
D:\PROJECTS\NEW CLI1\NEW CLI1\DEBUG\DW6.OBJ
D:\PROJECTS\NEW CLI1\NEW CLI1\DEBUG\FIELD.OBJ
D:\PROJECTS\NEW CLI1\NEW CLI1\DEBUG\FIGURE.OBJ
D:\PROJECTS\NEW CLI1\NEW CLI1\DEBUG\HORSE.OBJ
D:\PROJECTS\NEW CLI1\NEW CLI1\DEBUG\KING.OBJ
D:\PROJECTS\NEW CLI1\NEW CLI1\DEBUG\MYFORM.OBJ
D:\PROJECTS\NEW CLI1\NEW CLI1\DEBUG\PAWN.OBJ
D:\PROJECTS\NEW CLI1\NEW CLI1\DEBUG\QUEEN.OBJ
D:\PROJECTS\NEW CLI1\NEW CLI1\DEBUG\ROOK.OBJ
D:\PROJECTS\NEW CLI1\NEW CLI1\DEBUG\.NETFRAMEWORK,VERSION=V4.5.ASSEMBLYATTRIBUTES.OBJ
D:\PROGRAM FILES\VS\VC\TOOLS\MSVC\14.12.25827\BIN\HOSTX86\X86\1033\LINKUI.DLL
D:\PROGRAM FILES\VS\VC\TOOLS\MSVC\14.12.25827\BIN\HOSTX86\X86\LINK.EXE
C:\WINDOWS\SYSTEM32\TZRES.DLL
C:\WINDOWS\MICROSOFT.NET\FRAMEWORK\V2.0.50727\MSCORWKS.DLL
C:\WINDOWS\MICROSOFT.NET\FRAMEWORK\V4.0.30319\CLR.DLL
D:\PROGRAM FILES\VS\VC\TOOLS\MSVC\14.12.25827\BIN\HOSTX86\X86\LINK.EXE.CONFIG
D:\PROGRAM FILES\VS\VC\TOOLS\MSVC\14.12.25827\LIB\X86\MSVCRTD.LIB
D:\PROGRAM FILES\VS\VC\TOOLS\MSVC\14.12.25827\LIB\X86\OLDNAMES.LIB
D:\PROGRAM FILES\VS\VC\TOOLS\MSVC\14.12.25827\LIB\X86\MSVCMRTD.LIB
C:\PROGRAM FILES (X86)\WINDOWS KITS\NETFXSDK\4.6.1\LIB\UM\X86\MSCOREE.LIB
D:\PROGRAM FILES\VS\VC\TOOLS\MSVC\14.12.25827\LIB\X86\MSVCPRTD.LIB
C:\PROGRAM FILES (X86)\WINDOWS KITS\8.1\LIB\WINV6.3\UM\X86\UUID.LIB
C:\PROGRAM FILES (X86)\WINDOWS KITS\8.1\LIB\WINV6.3\UM\X86\KERNEL32.LIB
C:\PROGRAM FILES (X86)\WINDOWS KITS\10\LIB\10.0.10240.0\UCRT\X86\UCRTD.LIB
D:\PROGRAM FILES\VS\VC\TOOLS\MSVC\14.12.25827\LIB\X86\VCRUNTIMED.LIB
C:\PROGRAM FILES (X86)\WINDOWS KITS\8.1\BIN\X86\RC.EXE
D:\PROGRAM FILES\VS\VC\TOOLS\MSVC\14.12.25827\BIN\HOSTX86\X86\CVTRES.EXE
D:\PROJECTS\NEW CLI1\NEW CLI1\DEBUG\NEW_CLI1.DW1.RESOURCES
D:\PROJECTS\NEW CLI1\NEW CLI1\DEBUG\NEW_CLI1.DW2.RESOURCES
D:\PROJECTS\NEW CLI1\NEW CLI1\DEBUG\NEW_CLI1.DW3.RESOURCES
D:\PROJECTS\NEW CLI1\NEW CLI1\DEBUG\NEW_CLI1.DW4.RESOURCES
D:\PROJECTS\NEW CLI1\NEW CLI1\DEBUG\NEW_CLI1.DW5.RESOURCES
D:\PROJECTS\NEW CLI1\NEW CLI1\DEBUG\NEW_CLI1.DW6.RESOURCES
D:\PROJECTS\NEW CLI1\NEW CLI1\DEBUG\NEW_CLI1.MYFORM.RESOURCES
